{
  "android_play_store_link": "",
  "ios_app_store_link": "",
  "sticker_packs": [
    {
      "identifier": "1",
      "name": "Love 1",
      "publisher": "Sensei",
      "tray_image_file": "logo.png",
      "image_data_version":"1",
      "avoid_cache":false,
      "publisher_email":"",
      "publisher_website": "",
      "privacy_policy_website": "",
      "license_agreement_website": "",
      "stickers": [
        {
          "image_file": "l1.webp",
          "emojis": []
        },
        {
          "image_file": "l2.webp",
          "emojis": []
        },
        {
          "image_file": "l3.webp",
          "emojis": []
        },
        {
          "image_file": "l4.webp",
          "emojis": []
        },
        {
          "image_file": "l5.webp",
          "emojis": []
        },
        {
          "image_file": "l6.webp",
          "emojis": []
        },
        {
          "image_file": "l7.webp",
          "emojis": []
        },
        {
          "image_file": "l8.webp",
          "emojis": []
        },
        {
          "image_file": "l9.webp",
          "emojis": []
        },
        {
          "image_file": "l10.webp",
          "emojis": []
        },
        {
          "image_file": "1.webp",
          "emojis": []
        },
        {
          "image_file": "2.webp",
          "emojis": []
        }
      ]
    },
    {
      "identifier": "2",
      "name": "Love 2",
      "publisher": "Sensei",
      "tray_image_file": "logo.png",
      "image_data_version":"1",
      "avoid_cache":false,
      "publisher_email":"",
      "publisher_website": "",
      "privacy_policy_website": "",
      "license_agreement_website": "",
       "stickers": [
        {
          "image_file": "l1.webp",
          "emojis": []
        },
        {
          "image_file": "l2.webp",
          "emojis": []
        },
        {
          "image_file": "l3.webp",
          "emojis": []
        },
        {
          "image_file": "l4.webp",
          "emojis": []
        },
        {
          "image_file": "l5.webp",
          "emojis": []
        },
        {
          "image_file": "l6.webp",
          "emojis": []
        },
        {
          "image_file": "l7.webp",
          "emojis": []
        },
        {
          "image_file": "l8.webp",
          "emojis": []
        },
        {
          "image_file": "l9.webp",
          "emojis": []
        },
        {
          "image_file": "l10.webp",
          "emojis": []
        },
        {
          "image_file": "1.webp",
          "emojis": []
        },
        {
          "image_file": "2.webp",
          "emojis": []
        }
      ]
    },
    {
      "identifier": "3",
      "name": "Love 3",
      "publisher": "Sensei",
      "tray_image_file": "logo.png",
      "image_data_version":"1",
      "avoid_cache":false,
      "publisher_email":"",
      "publisher_website": "",
      "privacy_policy_website": "",
      "license_agreement_website": "",
      "stickers": [
        {
          "image_file": "l21.webp",
          "emojis": []
        },
        {
          "image_file": "l22.webp",
          "emojis": []
        },
        {
          "image_file": "l23.webp",
          "emojis": []
        },
        {
          "image_file": "l24.webp",
          "emojis": []
        },
        {
          "image_file": "l25.webp",
          "emojis": []
        },
        {
          "image_file": "l26.webp",
          "emojis": []
        },
        {
          "image_file": "l27.webp",
          "emojis": []
        },
        {
          "image_file": "l28.webp",
          "emojis": []
        },
        {
          "image_file": "l29.webp",
          "emojis": []
        },
        {
          "image_file": "l30.webp",
          "emojis": []
        },
        {
          "image_file": "5.webp",
          "emojis": []
        },
        {
          "image_file": "6.webp",
          "emojis": []
        }
      ]
    },
    {
      "identifier": "4",
      "name": "Love 4",
      "publisher": "Sensei",
      "tray_image_file": "logo.png",
      "image_data_version":"1",
      "avoid_cache":false,
      "publisher_email":"",
      "publisher_website": "",
      "privacy_policy_website": "",
      "license_agreement_website": "",
      "stickers": [
        {
          "image_file": "l31.webp",
          "emojis": []
        },
        {
          "image_file": "l32.webp",
          "emojis": []
        },
        {
          "image_file": "l33.webp",
          "emojis": []
        },
        {
          "image_file": "l34.webp",
          "emojis": []
        },
        {
          "image_file": "l35.webp",
          "emojis": []
        },
        {
          "image_file": "l37.webp",
          "emojis": []
        },
        {
          "image_file": "l38.webp",
          "emojis": []
        },
        {
          "image_file": "l39.webp",
          "emojis": []
        },
        {
          "image_file": "l40.webp",
          "emojis": []
        },
        {
          "image_file": "7.webp",
          "emojis": []
        },
        {
          "image_file": "8.webp",
          "emojis": []
        }
      ]
    },
    {
      "identifier": "5",
      "name": "Love 5",
      "publisher": "Sensei",
      "tray_image_file": "logo.png",
      "image_data_version":"1",
      "avoid_cache":false,
      "publisher_email":"",
      "publisher_website": "",
      "privacy_policy_website": "",
      "license_agreement_website": "",
      "stickers": [
        {
          "image_file": "l31.webp",
          "emojis": []
        },
        {
          "image_file": "l32.webp",
          "emojis": []
        },
        {
          "image_file": "l33.webp",
          "emojis": []
        },
        {
          "image_file": "l34.webp",
          "emojis": []
        },
        {
          "image_file": "l35.webp",
          "emojis": []
        },
        {
          "image_file": "l37.webp",
          "emojis": []
        },
        {
          "image_file": "l38.webp",
          "emojis": []
        },
        {
          "image_file": "l39.webp",
          "emojis": []
        },
        {
          "image_file": "l40.webp",
          "emojis": []
        },
        {
          "image_file": "7.webp",
          "emojis": []
        },
        {
          "image_file": "8.webp",
          "emojis": []
        }
      ]
    },
    {
      "identifier": "6",
      "name": "Love 6",
      "publisher": "Sensei",
      "tray_image_file": "logo.png",
      "image_data_version":"1",
      "avoid_cache":false,
      "publisher_email":"",
      "publisher_website": "",
      "privacy_policy_website": "",
      "license_agreement_website": "",
      "stickers": [
        {
          "image_file": "l31.webp",
          "emojis": []
        },
        {
          "image_file": "l32.webp",
          "emojis": []
        },
        {
          "image_file": "l33.webp",
          "emojis": []
        },
        {
          "image_file": "l34.webp",
          "emojis": []
        },
        {
          "image_file": "l35.webp",
          "emojis": []
        },
        {
          "image_file": "l37.webp",
          "emojis": []
        },
        {
          "image_file": "l38.webp",
          "emojis": []
        },
        {
          "image_file": "l39.webp",
          "emojis": []
        },
        {
          "image_file": "l40.webp",
          "emojis": []
        },
        {
          "image_file": "7.webp",
          "emojis": []
        },
        {
          "image_file": "8.webp",
          "emojis": []
        }
      ]
    },
    {
      "identifier": "7",
      "name": "Love 7",
      "publisher": "Sensei",
      "tray_image_file": "logo.png",
      "image_data_version":"1",
      "avoid_cache":false,
      "publisher_email":"",
      "publisher_website": "",
      "privacy_policy_website": "",
      "license_agreement_website": "",
      "stickers": [
        {
          "image_file": "l31.webp",
          "emojis": []
        },
        {
          "image_file": "l32.webp",
          "emojis": []
        },
        {
          "image_file": "l33.webp",
          "emojis": []
        },
        {
          "image_file": "l34.webp",
          "emojis": []
        },
        {
          "image_file": "l35.webp",
          "emojis": []
        },
        {
          "image_file": "l37.webp",
          "emojis": []
        },
        {
          "image_file": "l38.webp",
          "emojis": []
        },
        {
          "image_file": "l39.webp",
          "emojis": []
        },
        {
          "image_file": "l40.webp",
          "emojis": []
        },
        {
          "image_file": "7.webp",
          "emojis": []
        },
        {
          "image_file": "8.webp",
          "emojis": []
        }
      ]
    },
    {
      "identifier": "8",
      "name": "Love 8",
      "publisher": "Sensei",
      "tray_image_file": "logo.png",
      "image_data_version":"1",
      "avoid_cache":false,
      "publisher_email":"",
      "publisher_website": "",
      "privacy_policy_website": "",
      "license_agreement_website": "",
      "stickers": [
        {
          "image_file": "l31.webp",
          "emojis": []
        },
        {
          "image_file": "l32.webp",
          "emojis": []
        },
        {
          "image_file": "l33.webp",
          "emojis": []
        },
        {
          "image_file": "l34.webp",
          "emojis": []
        },
        {
          "image_file": "l35.webp",
          "emojis": []
        },
        {
          "image_file": "l37.webp",
          "emojis": []
        },
        {
          "image_file": "l38.webp",
          "emojis": []
        },
        {
          "image_file": "l39.webp",
          "emojis": []
        },
        {
          "image_file": "l40.webp",
          "emojis": []
        },
        {
          "image_file": "7.webp",
          "emojis": []
        },
        {
          "image_file": "8.webp",
          "emojis": []
        }
      ]
    },
    {
      "identifier": "9",
      "name": "Love 9",
      "publisher": "Sensei",
      "tray_image_file": "logo.png",
      "image_data_version":"1",
      "avoid_cache":false,
      "publisher_email":"",
      "publisher_website": "",
      "privacy_policy_website": "",
      "license_agreement_website": "",
      "stickers": [
        {
          "image_file": "l31.webp",
          "emojis": []
        },
        {
          "image_file": "l32.webp",
          "emojis": []
        },
        {
          "image_file": "l33.webp",
          "emojis": []
        },
        {
          "image_file": "l34.webp",
          "emojis": []
        },
        {
          "image_file": "l35.webp",
          "emojis": []
        },
        {
          "image_file": "l37.webp",
          "emojis": []
        },
        {
          "image_file": "l38.webp",
          "emojis": []
        },
        {
          "image_file": "l39.webp",
          "emojis": []
        },
        {
          "image_file": "l40.webp",
          "emojis": []
        },
        {
          "image_file": "7.webp",
          "emojis": []
        },
        {
          "image_file": "8.webp",
          "emojis": []
        }
      ]
    },
    {
      "identifier": "10",
      "name": "Love 11",
      "publisher": "Sensei",
      "tray_image_file": "logo.png",
      "image_data_version":"1",
      "avoid_cache":false,
      "publisher_email":"",
      "publisher_website": "",
      "privacy_policy_website": "",
      "license_agreement_website": "",
      "stickers": [
        {
          "image_file": "l31.webp",
          "emojis": []
        },
        {
          "image_file": "l32.webp",
          "emojis": []
        },
        {
          "image_file": "l33.webp",
          "emojis": []
        },
        {
          "image_file": "l34.webp",
          "emojis": []
        },
        {
          "image_file": "l35.webp",
          "emojis": []
        },
        {
          "image_file": "l37.webp",
          "emojis": []
        },
        {
          "image_file": "l38.webp",
          "emojis": []
        },
        {
          "image_file": "l39.webp",
          "emojis": []
        },
        {
          "image_file": "l40.webp",
          "emojis": []
        },
        {
          "image_file": "7.webp",
          "emojis": []
        },
        {
          "image_file": "8.webp",
          "emojis": []
        }
      ]
    },
    {
      "identifier": "12",
      "name": "Love 12",
      "publisher": "Sensei",
      "tray_image_file": "logo.png",
      "image_data_version":"1",
      "avoid_cache":false,
      "publisher_email":"",
      "publisher_website": "",
      "privacy_policy_website": "",
      "license_agreement_website": "",
      "stickers": [
        {
          "image_file": "l31.webp",
          "emojis": []
        },
        {
          "image_file": "l32.webp",
          "emojis": []
        },
        {
          "image_file": "l33.webp",
          "emojis": []
        },
        {
          "image_file": "l34.webp",
          "emojis": []
        },
        {
          "image_file": "l35.webp",
          "emojis": []
        },
        {
          "image_file": "l37.webp",
          "emojis": []
        },
        {
          "image_file": "l38.webp",
          "emojis": []
        },
        {
          "image_file": "l39.webp",
          "emojis": []
        },
        {
          "image_file": "l40.webp",
          "emojis": []
        },
        {
          "image_file": "7.webp",
          "emojis": []
        },
        {
          "image_file": "8.webp",
          "emojis": []
        }
      ]
    },
    {
      "identifier": "13",
      "name": "Love 13",
      "publisher": "Sensei",
      "tray_image_file": "logo.png",
      "image_data_version":"1",
      "avoid_cache":false,
      "publisher_email":"",
      "publisher_website": "",
      "privacy_policy_website": "",
      "license_agreement_website": "",
      "stickers": [
        {
          "image_file": "l31.webp",
          "emojis": []
        },
        {
          "image_file": "l32.webp",
          "emojis": []
        },
        {
          "image_file": "l33.webp",
          "emojis": []
        },
        {
          "image_file": "l34.webp",
          "emojis": []
        },
        {
          "image_file": "l35.webp",
          "emojis": []
        },
        {
          "image_file": "l37.webp",
          "emojis": []
        },
        {
          "image_file": "l38.webp",
          "emojis": []
        },
        {
          "image_file": "l39.webp",
          "emojis": []
        },
        {
          "image_file": "l40.webp",
          "emojis": []
        },
        {
          "image_file": "7.webp",
          "emojis": []
        },
        {
          "image_file": "8.webp",
          "emojis": []
        }
      ]
    },
    {
      "identifier": "14",
      "name": "Love 14",
      "publisher": "Sensei",
      "tray_image_file": "logo.png",
      "image_data_version":"1",
      "avoid_cache":false,
      "publisher_email":"",
      "publisher_website": "",
      "privacy_policy_website": "",
      "license_agreement_website": "",
      "stickers": [
        {
          "image_file": "l31.webp",
          "emojis": []
        },
        {
          "image_file": "l32.webp",
          "emojis": []
        },
        {
          "image_file": "l33.webp",
          "emojis": []
        },
        {
          "image_file": "l34.webp",
          "emojis": []
        },
        {
          "image_file": "l35.webp",
          "emojis": []
        },
        {
          "image_file": "l37.webp",
          "emojis": []
        },
        {
          "image_file": "l38.webp",
          "emojis": []
        },
        {
          "image_file": "l39.webp",
          "emojis": []
        },
        {
          "image_file": "l40.webp",
          "emojis": []
        },
        {
          "image_file": "7.webp",
          "emojis": []
        },
        {
          "image_file": "8.webp",
          "emojis": []
        }
      ]
    },
    {
      "identifier": "15",
      "name": "Love 15",
      "publisher": "Sensei",
      "tray_image_file": "logo.png",
      "image_data_version":"1",
      "avoid_cache":false,
      "publisher_email":"",
      "publisher_website": "",
      "privacy_policy_website": "",
      "license_agreement_website": "",
      "stickers": [
        {
          "image_file": "l31.webp",
          "emojis": []
        },
        {
          "image_file": "l32.webp",
          "emojis": []
        },
        {
          "image_file": "l33.webp",
          "emojis": []
        },
        {
          "image_file": "l34.webp",
          "emojis": []
        },
        {
          "image_file": "l35.webp",
          "emojis": []
        },
        {
          "image_file": "l37.webp",
          "emojis": []
        },
        {
          "image_file": "l38.webp",
          "emojis": []
        },
        {
          "image_file": "l39.webp",
          "emojis": []
        },
        {
          "image_file": "l40.webp",
          "emojis": []
        },
        {
          "image_file": "7.webp",
          "emojis": []
        },
        {
          "image_file": "8.webp",
          "emojis": []
        }
      ]
    },
    {
      "identifier": "16",
      "name": "Love 16",
      "publisher": "Sensei",
      "tray_image_file": "logo.png",
      "image_data_version":"1",
      "avoid_cache":false,
      "publisher_email":"",
      "publisher_website": "",
      "privacy_policy_website": "",
      "license_agreement_website": "",
      "stickers": [
        {
          "image_file": "l31.webp",
          "emojis": []
        },
        {
          "image_file": "l32.webp",
          "emojis": []
        },
        {
          "image_file": "l33.webp",
          "emojis": []
        },
        {
          "image_file": "l34.webp",
          "emojis": []
        },
        {
          "image_file": "l35.webp",
          "emojis": []
        },
        {
          "image_file": "l37.webp",
          "emojis": []
        },
        {
          "image_file": "l38.webp",
          "emojis": []
        },
        {
          "image_file": "l39.webp",
          "emojis": []
        },
        {
          "image_file": "l40.webp",
          "emojis": []
        },
        {
          "image_file": "7.webp",
          "emojis": []
        },
        {
          "image_file": "8.webp",
          "emojis": []
        }
      ]
    },
    {
      "identifier": "17",
      "name": "Love 17",
      "publisher": "Sensei",
      "tray_image_file": "logo.png",
      "image_data_version":"1",
      "avoid_cache":false,
      "publisher_email":"",
      "publisher_website": "",
      "privacy_policy_website": "",
      "license_agreement_website": "",
      "stickers": [
        {
          "image_file": "l31.webp",
          "emojis": []
        },
        {
          "image_file": "l32.webp",
          "emojis": []
        },
        {
          "image_file": "l33.webp",
          "emojis": []
        },
        {
          "image_file": "l34.webp",
          "emojis": []
        },
        {
          "image_file": "l35.webp",
          "emojis": []
        },
        {
          "image_file": "l37.webp",
          "emojis": []
        },
        {
          "image_file": "l38.webp",
          "emojis": []
        },
        {
          "image_file": "l39.webp",
          "emojis": []
        },
        {
          "image_file": "l40.webp",
          "emojis": []
        },
        {
          "image_file": "7.webp",
          "emojis": []
        },
        {
          "image_file": "8.webp",
          "emojis": []
        }
      ]
    },
    {
      "identifier": "18",
      "name": "Love 18",
      "publisher": "Sensei",
      "tray_image_file": "logo.png",
      "image_data_version":"1",
      "avoid_cache":false,
      "publisher_email":"",
      "publisher_website": "",
      "privacy_policy_website": "",
      "license_agreement_website": "",
      "stickers": [
        {
          "image_file": "l31.webp",
          "emojis": []
        },
        {
          "image_file": "l32.webp",
          "emojis": []
        },
        {
          "image_file": "l33.webp",
          "emojis": []
        },
        {
          "image_file": "l34.webp",
          "emojis": []
        },
        {
          "image_file": "l35.webp",
          "emojis": []
        },
        {
          "image_file": "l37.webp",
          "emojis": []
        },
        {
          "image_file": "l38.webp",
          "emojis": []
        },
        {
          "image_file": "l39.webp",
          "emojis": []
        },
        {
          "image_file": "l40.webp",
          "emojis": []
        },
        {
          "image_file": "7.webp",
          "emojis": []
        },
        {
          "image_file": "8.webp",
          "emojis": []
        }
      ]
    },
    {
      "identifier": "19",
      "name": "Love 19",
      "publisher": "Sensei",
      "tray_image_file": "logo.png",
      "image_data_version":"1",
      "avoid_cache":false,
      "publisher_email":"",
      "publisher_website": "",
      "privacy_policy_website": "",
      "license_agreement_website": "",
      "stickers": [
        {
          "image_file": "l31.webp",
          "emojis": []
        },
        {
          "image_file": "l32.webp",
          "emojis": []
        },
        {
          "image_file": "l33.webp",
          "emojis": []
        },
        {
          "image_file": "l34.webp",
          "emojis": []
        },
        {
          "image_file": "l35.webp",
          "emojis": []
        },
        {
          "image_file": "l37.webp",
          "emojis": []
        },
        {
          "image_file": "l38.webp",
          "emojis": []
        },
        {
          "image_file": "l39.webp",
          "emojis": []
        },
        {
          "image_file": "l40.webp",
          "emojis": []
        },
        {
          "image_file": "7.webp",
          "emojis": []
        },
        {
          "image_file": "8.webp",
          "emojis": []
        }
      ]
    },
    {
      "identifier": "20",
      "name": "Love 20",
      "publisher": "Sensei",
      "tray_image_file": "logo.png",
      "image_data_version":"1",
      "avoid_cache":false,
      "publisher_email":"",
      "publisher_website": "",
      "privacy_policy_website": "",
      "license_agreement_website": "",
      "stickers": [
        {
          "image_file": "l31.webp",
          "emojis": []
        },
        {
          "image_file": "l32.webp",
          "emojis": []
        },
        {
          "image_file": "l33.webp",
          "emojis": []
        },
        {
          "image_file": "l34.webp",
          "emojis": []
        },
        {
          "image_file": "l35.webp",
          "emojis": []
        },
        {
          "image_file": "l37.webp",
          "emojis": []
        },
        {
          "image_file": "l38.webp",
          "emojis": []
        },
        {
          "image_file": "l39.webp",
          "emojis": []
        },
        {
          "image_file": "l40.webp",
          "emojis": []
        },
        {
          "image_file": "7.webp",
          "emojis": []
        },
        {
          "image_file": "8.webp",
          "emojis": []
        }
      ]
    },
    {
      "identifier": "21",
      "name": "Love 21",
      "publisher": "Sensei",
      "tray_image_file": "logo.png",
      "image_data_version":"1",
      "avoid_cache":false,
      "publisher_email":"",
      "publisher_website": "",
      "privacy_policy_website": "",
      "license_agreement_website": "",
      "stickers": [
        {
          "image_file": "l31.webp",
          "emojis": []
        },
        {
          "image_file": "l32.webp",
          "emojis": []
        },
        {
          "image_file": "l33.webp",
          "emojis": []
        },
        {
          "image_file": "l34.webp",
          "emojis": []
        },
        {
          "image_file": "l35.webp",
          "emojis": []
        },
        {
          "image_file": "l37.webp",
          "emojis": []
        },
        {
          "image_file": "l38.webp",
          "emojis": []
        },
        {
          "image_file": "l39.webp",
          "emojis": []
        },
        {
          "image_file": "l40.webp",
          "emojis": []
        },
        {
          "image_file": "7.webp",
          "emojis": []
        },
        {
          "image_file": "8.webp",
          "emojis": []
        }
      ]
    },
    {
      "identifier": "22",
      "name": "Love 22",
      "publisher": "Sensei",
      "tray_image_file": "logo.png",
      "image_data_version":"1",
      "avoid_cache":false,
      "publisher_email":"",
      "publisher_website": "",
      "privacy_policy_website": "",
      "license_agreement_website": "",
      "stickers": [
        {
          "image_file": "l31.webp",
          "emojis": []
        },
        {
          "image_file": "l32.webp",
          "emojis": []
        },
        {
          "image_file": "l33.webp",
          "emojis": []
        },
        {
          "image_file": "l34.webp",
          "emojis": []
        },
        {
          "image_file": "l35.webp",
          "emojis": []
        },
        {
          "image_file": "l37.webp",
          "emojis": []
        },
        {
          "image_file": "l38.webp",
          "emojis": []
        },
        {
          "image_file": "l39.webp",
          "emojis": []
        },
        {
          "image_file": "l40.webp",
          "emojis": []
        },
        {
          "image_file": "7.webp",
          "emojis": []
        },
        {
          "image_file": "8.webp",
          "emojis": []
        }
      ]
    },
    {
      "identifier": "23",
      "name": "Love 23",
      "publisher": "Sensei",
      "tray_image_file": "logo.png",
      "image_data_version":"1",
      "avoid_cache":false,
      "publisher_email":"",
      "publisher_website": "",
      "privacy_policy_website": "",
      "license_agreement_website": "",
      "stickers": [
        {
          "image_file": "l31.webp",
          "emojis": []
        },
        {
          "image_file": "l32.webp",
          "emojis": []
        },
        {
          "image_file": "l33.webp",
          "emojis": []
        },
        {
          "image_file": "l34.webp",
          "emojis": []
        },
        {
          "image_file": "l35.webp",
          "emojis": []
        },
        {
          "image_file": "l37.webp",
          "emojis": []
        },
        {
          "image_file": "l38.webp",
          "emojis": []
        },
        {
          "image_file": "l39.webp",
          "emojis": []
        },
        {
          "image_file": "l40.webp",
          "emojis": []
        },
        {
          "image_file": "7.webp",
          "emojis": []
        },
        {
          "image_file": "8.webp",
          "emojis": []
        }
      ]
    },
    {
      "identifier": "24",
      "name": "Love 24",
      "publisher": "Sensei",
      "tray_image_file": "logo.png",
      "image_data_version":"1",
      "avoid_cache":false,
      "publisher_email":"",
      "publisher_website": "",
      "privacy_policy_website": "",
      "license_agreement_website": "",
      "stickers": [
        {
          "image_file": "l31.webp",
          "emojis": []
        },
        {
          "image_file": "l32.webp",
          "emojis": []
        },
        {
          "image_file": "l33.webp",
          "emojis": []
        },
        {
          "image_file": "l34.webp",
          "emojis": []
        },
        {
          "image_file": "l35.webp",
          "emojis": []
        },
        {
          "image_file": "l37.webp",
          "emojis": []
        },
        {
          "image_file": "l38.webp",
          "emojis": []
        },
        {
          "image_file": "l39.webp",
          "emojis": []
        },
        {
          "image_file": "l40.webp",
          "emojis": []
        },
        {
          "image_file": "7.webp",
          "emojis": []
        },
        {
          "image_file": "8.webp",
          "emojis": []
        }
      ]
    },
    {
      "identifier": "25",
      "name": "Love 25",
      "publisher": "Sensei",
      "tray_image_file": "logo.png",
      "image_data_version":"1",
      "avoid_cache":false,
      "publisher_email":"",
      "publisher_website": "",
      "privacy_policy_website": "",
      "license_agreement_website": "",
      "stickers": [
        {
          "image_file": "l31.webp",
          "emojis": []
        },
        {
          "image_file": "l32.webp",
          "emojis": []
        },
        {
          "image_file": "l33.webp",
          "emojis": []
        },
        {
          "image_file": "l34.webp",
          "emojis": []
        },
        {
          "image_file": "l35.webp",
          "emojis": []
        },
        {
          "image_file": "l37.webp",
          "emojis": []
        },
        {
          "image_file": "l38.webp",
          "emojis": []
        },
        {
          "image_file": "l39.webp",
          "emojis": []
        },
        {
          "image_file": "l40.webp",
          "emojis": []
        },
        {
          "image_file": "7.webp",
          "emojis": []
        },
        {
          "image_file": "8.webp",
          "emojis": []
        }
      ]
    },
    {
      "identifier": "26",
      "name": "Love 26",
      "publisher": "Sensei",
      "tray_image_file": "logo.png",
      "image_data_version":"1",
      "avoid_cache":false,
      "publisher_email":"",
      "publisher_website": "",
      "privacy_policy_website": "",
      "license_agreement_website": "",
      "stickers": [
        {
          "image_file": "l31.webp",
          "emojis": []
        },
        {
          "image_file": "l32.webp",
          "emojis": []
        },
        {
          "image_file": "l33.webp",
          "emojis": []
        },
        {
          "image_file": "l34.webp",
          "emojis": []
        },
        {
          "image_file": "l35.webp",
          "emojis": []
        },
        {
          "image_file": "l37.webp",
          "emojis": []
        },
        {
          "image_file": "l38.webp",
          "emojis": []
        },
        {
          "image_file": "l39.webp",
          "emojis": []
        },
        {
          "image_file": "l40.webp",
          "emojis": []
        },
        {
          "image_file": "7.webp",
          "emojis": []
        },
        {
          "image_file": "8.webp",
          "emojis": []
        }
      ]
    },
    {
      "identifier": "27",
      "name": "Love 27",
      "publisher": "Sensei",
      "tray_image_file": "logo.png",
      "image_data_version":"1",
      "avoid_cache":false,
      "publisher_email":"",
      "publisher_website": "",
      "privacy_policy_website": "",
      "license_agreement_website": "",
      "stickers": [
        {
          "image_file": "l31.webp",
          "emojis": []
        },
        {
          "image_file": "l32.webp",
          "emojis": []
        },
        {
          "image_file": "l33.webp",
          "emojis": []
        },
        {
          "image_file": "l34.webp",
          "emojis": []
        },
        {
          "image_file": "l35.webp",
          "emojis": []
        },
        {
          "image_file": "l37.webp",
          "emojis": []
        },
        {
          "image_file": "l38.webp",
          "emojis": []
        },
        {
          "image_file": "l39.webp",
          "emojis": []
        },
        {
          "image_file": "l40.webp",
          "emojis": []
        },
        {
          "image_file": "7.webp",
          "emojis": []
        },
        {
          "image_file": "8.webp",
          "emojis": []
        }
      ]
    },
    {
      "identifier": "28",
      "name": "Love 28",
      "publisher": "Sensei",
      "tray_image_file": "logo.png",
      "image_data_version":"1",
      "avoid_cache":false,
      "publisher_email":"",
      "publisher_website": "",
      "privacy_policy_website": "",
      "license_agreement_website": "",
      "stickers": [
        {
          "image_file": "l31.webp",
          "emojis": []
        },
        {
          "image_file": "l32.webp",
          "emojis": []
        },
        {
          "image_file": "l33.webp",
          "emojis": []
        },
        {
          "image_file": "l34.webp",
          "emojis": []
        },
        {
          "image_file": "l35.webp",
          "emojis": []
        },
        {
          "image_file": "l37.webp",
          "emojis": []
        },
        {
          "image_file": "l38.webp",
          "emojis": []
        },
        {
          "image_file": "l39.webp",
          "emojis": []
        },
        {
          "image_file": "l40.webp",
          "emojis": []
        },
        {
          "image_file": "7.webp",
          "emojis": []
        },
        {
          "image_file": "8.webp",
          "emojis": []
        }
      ]
    },
    {
      "identifier": "29",
      "name": "Love 29",
      "publisher": "Sensei",
      "tray_image_file": "logo.png",
      "image_data_version":"1",
      "avoid_cache":false,
      "publisher_email":"",
      "publisher_website": "",
      "privacy_policy_website": "",
      "license_agreement_website": "",
      "stickers": [
        {
          "image_file": "l31.webp",
          "emojis": []
        },
        {
          "image_file": "l32.webp",
          "emojis": []
        },
        {
          "image_file": "l33.webp",
          "emojis": []
        },
        {
          "image_file": "l34.webp",
          "emojis": []
        },
        {
          "image_file": "l35.webp",
          "emojis": []
        },
        {
          "image_file": "l37.webp",
          "emojis": []
        },
        {
          "image_file": "l38.webp",
          "emojis": []
        },
        {
          "image_file": "l39.webp",
          "emojis": []
        },
        {
          "image_file": "l40.webp",
          "emojis": []
        },
        {
          "image_file": "7.webp",
          "emojis": []
        },
        {
          "image_file": "8.webp",
          "emojis": []
        }
      ]
    },
    {
      "identifier": "30",
      "name": "Love 30",
      "publisher": "Sensei",
      "tray_image_file": "logo.png",
      "image_data_version":"1",
      "avoid_cache":false,
      "publisher_email":"",
      "publisher_website": "",
      "privacy_policy_website": "",
      "license_agreement_website": "",
      "stickers": [
        {
          "image_file": "l31.webp",
          "emojis": []
        },
        {
          "image_file": "l32.webp",
          "emojis": []
        },
        {
          "image_file": "l33.webp",
          "emojis": []
        },
        {
          "image_file": "l34.webp",
          "emojis": []
        },
        {
          "image_file": "l35.webp",
          "emojis": []
        },
        {
          "image_file": "l37.webp",
          "emojis": []
        },
        {
          "image_file": "l38.webp",
          "emojis": []
        },
        {
          "image_file": "l39.webp",
          "emojis": []
        },
        {
          "image_file": "l40.webp",
          "emojis": []
        },
        {
          "image_file": "7.webp",
          "emojis": []
        },
        {
          "image_file": "8.webp",
          "emojis": []
        }
      ]
    },
    {
      "identifier": "31",
      "name": "Love 31",
      "publisher": "Sensei",
      "tray_image_file": "logo.png",
      "image_data_version":"1",
      "avoid_cache":false,
      "publisher_email":"",
      "publisher_website": "",
      "privacy_policy_website": "",
      "license_agreement_website": "",
      "stickers": [
        {
          "image_file": "l31.webp",
          "emojis": []
        },
        {
          "image_file": "l32.webp",
          "emojis": []
        },
        {
          "image_file": "l33.webp",
          "emojis": []
        },
        {
          "image_file": "l34.webp",
          "emojis": []
        },
        {
          "image_file": "l35.webp",
          "emojis": []
        },
        {
          "image_file": "l37.webp",
          "emojis": []
        },
        {
          "image_file": "l38.webp",
          "emojis": []
        },
        {
          "image_file": "l39.webp",
          "emojis": []
        },
        {
          "image_file": "l40.webp",
          "emojis": []
        },
        {
          "image_file": "7.webp",
          "emojis": []
        },
        {
          "image_file": "8.webp",
          "emojis": []
        }
      ]
    },
    {
      "identifier": "32",
      "name": "Love 32",
      "publisher": "Sensei",
      "tray_image_file": "logo.png",
      "image_data_version":"1",
      "avoid_cache":false,
      "publisher_email":"",
      "publisher_website": "",
      "privacy_policy_website": "",
      "license_agreement_website": "",
      "stickers": [
        {
          "image_file": "l31.webp",
          "emojis": []
        },
        {
          "image_file": "l32.webp",
          "emojis": []
        },
        {
          "image_file": "l33.webp",
          "emojis": []
        },
        {
          "image_file": "l34.webp",
          "emojis": []
        },
        {
          "image_file": "l35.webp",
          "emojis": []
        },
        {
          "image_file": "l37.webp",
          "emojis": []
        },
        {
          "image_file": "l38.webp",
          "emojis": []
        },
        {
          "image_file": "l39.webp",
          "emojis": []
        },
        {
          "image_file": "l40.webp",
          "emojis": []
        },
        {
          "image_file": "7.webp",
          "emojis": []
        },
        {
          "image_file": "8.webp",
          "emojis": []
        }
      ]
    },
    {
      "identifier": "33",
      "name": "Love 33",
      "publisher": "Sensei",
      "tray_image_file": "logo.png",
      "image_data_version":"1",
      "avoid_cache":false,
      "publisher_email":"",
      "publisher_website": "",
      "privacy_policy_website": "",
      "license_agreement_website": "",
      "stickers": [
        {
          "image_file": "l31.webp",
          "emojis": []
        },
        {
          "image_file": "l32.webp",
          "emojis": []
        },
        {
          "image_file": "l33.webp",
          "emojis": []
        },
        {
          "image_file": "l34.webp",
          "emojis": []
        },
        {
          "image_file": "l35.webp",
          "emojis": []
        },
        {
          "image_file": "l37.webp",
          "emojis": []
        },
        {
          "image_file": "l38.webp",
          "emojis": []
        },
        {
          "image_file": "l39.webp",
          "emojis": []
        },
        {
          "image_file": "l40.webp",
          "emojis": []
        },
        {
          "image_file": "7.webp",
          "emojis": []
        },
        {
          "image_file": "8.webp",
          "emojis": []
        }
      ]
    },
    {
      "identifier": "34",
      "name": "Love 34",
      "publisher": "Sensei",
      "tray_image_file": "logo.png",
      "image_data_version":"1",
      "avoid_cache":false,
      "publisher_email":"",
      "publisher_website": "",
      "privacy_policy_website": "",
      "license_agreement_website": "",
      "stickers": [
        {
          "image_file": "l31.webp",
          "emojis": []
        },
        {
          "image_file": "l32.webp",
          "emojis": []
        },
        {
          "image_file": "l33.webp",
          "emojis": []
        },
        {
          "image_file": "l34.webp",
          "emojis": []
        },
        {
          "image_file": "l35.webp",
          "emojis": []
        },
        {
          "image_file": "l37.webp",
          "emojis": []
        },
        {
          "image_file": "l38.webp",
          "emojis": []
        },
        {
          "image_file": "l39.webp",
          "emojis": []
        },
        {
          "image_file": "l40.webp",
          "emojis": []
        },
        {
          "image_file": "7.webp",
          "emojis": []
        },
        {
          "image_file": "8.webp",
          "emojis": []
        }
      ]
    },
    {
      "identifier": "35",
      "name": "Love 35",
      "publisher": "Sensei",
      "tray_image_file": "logo.png",
      "image_data_version":"1",
      "avoid_cache":false,
      "publisher_email":"",
      "publisher_website": "",
      "privacy_policy_website": "",
      "license_agreement_website": "",
      "stickers": [
        {
          "image_file": "l31.webp",
          "emojis": []
        },
        {
          "image_file": "l32.webp",
          "emojis": []
        },
        {
          "image_file": "l33.webp",
          "emojis": []
        },
        {
          "image_file": "l34.webp",
          "emojis": []
        },
        {
          "image_file": "l35.webp",
          "emojis": []
        },
        {
          "image_file": "l37.webp",
          "emojis": []
        },
        {
          "image_file": "l38.webp",
          "emojis": []
        },
        {
          "image_file": "l39.webp",
          "emojis": []
        },
        {
          "image_file": "l40.webp",
          "emojis": []
        },
        {
          "image_file": "7.webp",
          "emojis": []
        },
        {
          "image_file": "8.webp",
          "emojis": []
        }
      ]
    },
    {
      "identifier": "36",
      "name": "Love 36",
      "publisher": "Sensei",
      "tray_image_file": "logo.png",
      "image_data_version":"1",
      "avoid_cache":false,
      "publisher_email":"",
      "publisher_website": "",
      "privacy_policy_website": "",
      "license_agreement_website": "",
      "stickers": [
        {
          "image_file": "l31.webp",
          "emojis": []
        },
        {
          "image_file": "l32.webp",
          "emojis": []
        },
        {
          "image_file": "l33.webp",
          "emojis": []
        },
        {
          "image_file": "l34.webp",
          "emojis": []
        },
        {
          "image_file": "l35.webp",
          "emojis": []
        },
        {
          "image_file": "l37.webp",
          "emojis": []
        },
        {
          "image_file": "l38.webp",
          "emojis": []
        },
        {
          "image_file": "l39.webp",
          "emojis": []
        },
        {
          "image_file": "l40.webp",
          "emojis": []
        },
        {
          "image_file": "7.webp",
          "emojis": []
        },
        {
          "image_file": "8.webp",
          "emojis": []
        }
      ]
    },
    {
      "identifier": "37",
      "name": "Love 37",
      "publisher": "Sensei",
      "tray_image_file": "logo.png",
      "image_data_version":"1",
      "avoid_cache":false,
      "publisher_email":"",
      "publisher_website": "",
      "privacy_policy_website": "",
      "license_agreement_website": "",
      "stickers": [
        {
          "image_file": "l31.webp",
          "emojis": []
        },
        {
          "image_file": "l32.webp",
          "emojis": []
        },
        {
          "image_file": "l33.webp",
          "emojis": []
        },
        {
          "image_file": "l34.webp",
          "emojis": []
        },
        {
          "image_file": "l35.webp",
          "emojis": []
        },
        {
          "image_file": "l37.webp",
          "emojis": []
        },
        {
          "image_file": "l38.webp",
          "emojis": []
        },
        {
          "image_file": "l39.webp",
          "emojis": []
        },
        {
          "image_file": "l40.webp",
          "emojis": []
        },
        {
          "image_file": "7.webp",
          "emojis": []
        },
        {
          "image_file": "8.webp",
          "emojis": []
        }
      ]
    },
    {
      "identifier": "38",
      "name": "Love 38",
      "publisher": "Sensei",
      "tray_image_file": "logo.png",
      "image_data_version":"1",
      "avoid_cache":false,
      "publisher_email":"",
      "publisher_website": "",
      "privacy_policy_website": "",
      "license_agreement_website": "",
      "stickers": [
        {
          "image_file": "l31.webp",
          "emojis": []
        },
        {
          "image_file": "l32.webp",
          "emojis": []
        },
        {
          "image_file": "l33.webp",
          "emojis": []
        },
        {
          "image_file": "l34.webp",
          "emojis": []
        },
        {
          "image_file": "l35.webp",
          "emojis": []
        },
        {
          "image_file": "l37.webp",
          "emojis": []
        },
        {
          "image_file": "l38.webp",
          "emojis": []
        },
        {
          "image_file": "l39.webp",
          "emojis": []
        },
        {
          "image_file": "l40.webp",
          "emojis": []
        },
        {
          "image_file": "7.webp",
          "emojis": []
        },
        {
          "image_file": "8.webp",
          "emojis": []
        }
      ]
    },
    {
      "identifier": "39",
      "name": "Love 39",
      "publisher": "Sensei",
      "tray_image_file": "logo.png",
      "image_data_version":"1",
      "avoid_cache":false,
      "publisher_email":"",
      "publisher_website": "",
      "privacy_policy_website": "",
      "license_agreement_website": "",
      "stickers": [
        {
          "image_file": "l31.webp",
          "emojis": []
        },
        {
          "image_file": "l32.webp",
          "emojis": []
        },
        {
          "image_file": "l33.webp",
          "emojis": []
        },
        {
          "image_file": "l34.webp",
          "emojis": []
        },
        {
          "image_file": "l35.webp",
          "emojis": []
        },
        {
          "image_file": "l37.webp",
          "emojis": []
        },
        {
          "image_file": "l38.webp",
          "emojis": []
        },
        {
          "image_file": "l39.webp",
          "emojis": []
        },
        {
          "image_file": "l40.webp",
          "emojis": []
        },
        {
          "image_file": "7.webp",
          "emojis": []
        },
        {
          "image_file": "8.webp",
          "emojis": []
        }
      ]
    },
    {
      "identifier": "40",
      "name": "Love 40",
      "publisher": "Sensei",
      "tray_image_file": "logo.png",
      "image_data_version":"1",
      "avoid_cache":false,
      "publisher_email":"",
      "publisher_website": "",
      "privacy_policy_website": "",
      "license_agreement_website": "",
      "stickers": [
        {
          "image_file": "l31.webp",
          "emojis": []
        },
        {
          "image_file": "l32.webp",
          "emojis": []
        },
        {
          "image_file": "l33.webp",
          "emojis": []
        },
        {
          "image_file": "l34.webp",
          "emojis": []
        },
        {
          "image_file": "l35.webp",
          "emojis": []
        },
        {
          "image_file": "l37.webp",
          "emojis": []
        },
        {
          "image_file": "l38.webp",
          "emojis": []
        },
        {
          "image_file": "l39.webp",
          "emojis": []
        },
        {
          "image_file": "l40.webp",
          "emojis": []
        },
        {
          "image_file": "7.webp",
          "emojis": []
        },
        {
          "image_file": "8.webp",
          "emojis": []
        }
      ]
    }
  ]
}
